[gd_scene load_steps=5 format=2]

[ext_resource path="res://LorenzAttractor.tscn" type="PackedScene" id=1]

[sub_resource type="Environment" id=1]
background_mode = 1

[sub_resource type="Animation" id=2]
length = 0.001
tracks/0/type = "value"
tracks/0/path = NodePath("CameraPivot:rotation_degrees")
tracks/0/interp = 1
tracks/0/loop_wrap = true
tracks/0/imported = false
tracks/0/enabled = true
tracks/0/keys = {
"times": PoolRealArray( 0 ),
"transitions": PoolRealArray( 1 ),
"update": 0,
"values": [ Vector3( 0, 1.00179e-05, 0 ) ]
}

[sub_resource type="Animation" id=3]
resource_name = "camera"
length = 10.0
loop = true
tracks/0/type = "value"
tracks/0/path = NodePath("CameraPivot:rotation_degrees")
tracks/0/interp = 1
tracks/0/loop_wrap = true
tracks/0/imported = false
tracks/0/enabled = true
tracks/0/keys = {
"times": PoolRealArray( 0, 10 ),
"transitions": PoolRealArray( 1, 1 ),
"update": 0,
"values": [ Vector3( 0, 1.00179e-05, 0 ), Vector3( 0, 360, 0 ) ]
}

[node name="World" type="Spatial"]

[node name="LorenzAttractor" parent="." instance=ExtResource( 1 )]
color = Color( 1, 1, 1, 0.478431 )

[node name="LorenzAttractor2" parent="." instance=ExtResource( 1 )]
color = Color( 1, 0, 0, 0.52549 )
priority = 1
z = 0.01

[node name="LorenzAttractor3" parent="." instance=ExtResource( 1 )]
color = Color( 0.0784314, 1, 0, 0.52549 )
priority = 2
y = 0.01

[node name="LorenzAttractor4" parent="." instance=ExtResource( 1 )]
color = Color( 0, 0.203922, 1, 0.52549 )
priority = 3
y = 0.01
z = 0.01

[node name="CameraPivot" type="Spatial" parent="."]
transform = Transform( 1, 0, 1.74845e-07, 0, 1, 0, -1.74845e-07, 0, 1, 0, 0, 0 )

[node name="Camera" type="Camera" parent="CameraPivot"]
transform = Transform( 1, 0, 0, 0, 1, 0, 0, 0, 1, 2.53607e-07, 0, 3.57751 )

[node name="WorldEnvironment" type="WorldEnvironment" parent="."]
environment = SubResource( 1 )

[node name="AnimationPlayer" type="AnimationPlayer" parent="."]
autoplay = "camera"
anims/RESET = SubResource( 2 )
anims/camera = SubResource( 3 )
