; Engine configuration file.
; It's best edited using the editor UI and not directly,
; since the parameters that go here are not all obvious.
;
; Format:
;   [section] ; section goes between []
;   param=value ; assign values to parameters

config_version=4

_global_script_classes=[ {
"base": "Spatial",
"class": "Planet",
"language": "GDScript",
"path": "res://planet/Planet.gd"
} ]
_global_script_class_icons={
"Planet": ""
}

[application]

config/name="Solar System"
run/main_scene="res://world/World.tscn"
config/icon="res://icon.png"

[display]

window/size/width=1000
window/size/height=1000

[physics]

common/enable_pause_aware_picking=true

[rendering]

environment/default_environment="res://default_env.tres"
