; Engine configuration file.
; It's best edited using the editor UI and not directly,
; since the parameters that go here are not all obvious.
;
; Format:
;   [section] ; section goes between []
;   param=value ; assign values to parameters

config_version=4

[application]

config/name="Terrain Generation"
run/main_scene="res://World.tscn"
config/icon="res://icon.png"

[display]

window/size/width=1000
window/size/height=1000
window/dpi/allow_hidpi=true

[physics]

common/enable_pause_aware_picking=true

[rendering]

environment/default_environment="res://default_env.tres"
