[gd_scene load_steps=3 format=2]

[ext_resource path="res://box/Box.gd" type="Script" id=1]

[sub_resource type="CubeMesh" id=1]

[node name="Box" type="Spatial"]
script = ExtResource( 1 )

[node name="MeshInstance" type="MeshInstance" parent="."]
mesh = SubResource( 1 )
material/0 = null

[node name="Children" type="Spatial" parent="."]
